stress_MPa	strain
102.787	0.00170744
194.069	0.00332008
289.123	0.00501704
376.445	0.00658753
464.522	0.00827401
551.844	0.00996050
635.206	0.0118052
710.081	0.0135867
777.413	0.0154316
837.011	0.0168230
904.155	0.0186046
959.982	0.0203019
1015.24	0.0219254
1062.77	0.0237704
1103.89	0.0253202
